examples/bugreport_deadlock_out/raw/am_logs.vcd
$timescale 1ms $end
$scope am_logs $end
$var wire 1 a32 com.android.email/.service.EmailBroadcastProcessorService $end
$var wire 1 a49 com.android.voicedialer $end
$var wire 1 a52 com.android.defcontainer $end
$var wire 1 a8 com.android.launcher $end
$var wire 1 a29 com.android.providers.downloads/.DownloadService $end
$var wire 1 a4 com.android.inputmethod.latin $end
$var wire 1 a6 com.android.phone $end
$var wire 1 a7 com.android.launcher/com.android.launcher2.Launcher $end
$var wire 1 a36 com.google.android.partnersetup $end
$var wire 1 a14 com.android.phone/.InCallScreen $end
$var wire 1 a47 com.google.android.gsf/.gtalkservice.service.GTalkService $end
$var wire 1 a22 com.android.providers.calendar $end
$var wire 1 a26 com.android.bluetooth $end
$var wire 1 a13 com.android.phone/.BluetoothHeadsetService $end
$var wire 1 a56 com.sonymobile.chkbugreport.testapp/.MainActivity $end
$var wire 1 a25 com.miui.backup $end
$var wire 1 a24 com.miui.antispam $end
$var wire 1 a46 com.google.android.talk $end
$var wire 1 a20 com.miui.notes $end
$var wire 1 a31 com.android.email/com.android.exchange.SyncManager $end
$var wire 1 a42 com.android.mms $end
$var wire 1 a5 com.android.systemui/.statusbar.StatusBarService $end
$var wire 1 a34 com.google.android.gm/.MailIntentService $end
$var wire 1 a55 com.miui.uac $end
$var wire 1 a50 com.android.vending/com.google.android.finsky.billing.iab.PendingNotificationsService $end
$var wire 1 a9 com.android.inputmethod.latin/.LatinIME $end
$var wire 1 a35 com.google.android.gm/.downloadprovider.DownloadService $end
$var wire 1 a44 com.android.stk/.StkAppService $end
$var wire 1 a45 com.miui.supermarket $end
$var wire 1 a11 com.google.process.gapps $end
$var wire 1 a23 com.android.providers.calendar/.CalendarAppWidgetService $end
$var wire 1 a51 com.android.gallery $end
$var wire 1 a18 com.android.updater $end
$var wire 1 a19 com.android.settings $end
$var wire 1 a58 com.sonymobile.chkbugreport.testapp/.Deadlock $end
$var wire 1 a1 com.google.android.backup/.BackupTransportService $end
$var wire 1 a41 com.android.providers.media/.MediaScannerService $end
$var wire 1 a16 com.android.vending $end
$var wire 1 a15 com.google.android.location/.NetworkLocationService $end
$var wire 1 a37 com.google.android.partnersetup/.AppHiderService $end
$var wire 1 a2 com.android.systemui $end
$var wire 1 a12 com.google.android.gsf/.loginservice.GoogleLoginService $end
$var wire 1 a33 com.google.android.gm $end
$var wire 1 a57 com.sonymobile.chkbugreport.testapp $end
$var wire 1 a17 android.process.media $end
$var wire 1 a54 com.svox.pico $end
$var wire 1 a38 com.google.android.gsf/.checkin.CheckinService $end
$var wire 1 a30 com.android.email $end
$var wire 1 a21 com.android.deskclock $end
$var wire 1 a53 com.android.defcontainer/.DefaultContainerService $end
$var wire 1 a28 com.android.providers.calendar/.EmptyService $end
$var wire 1 a27 com.android.bluetooth/.opp.BluetoothOppService $end
$var wire 1 a39 com.google.android.gsf/.update.SystemUpdateService $end
$var wire 1 a48 com.google.android.talk/.videochat.RefreshCameraStateProcessorService $end
$var wire 1 a43 com.android.mms/.transaction.SmsReceiverService $end
$var wire 1 a40 com.google.android.gsf/.update.SystemUpdateInstallDialog $end
$var wire 1 a3 android/com.android.internal.service.wallpaper.ImageWallpaper $end
$var wire 1 a10 android.process.acore $end
$upscope $end
$enddefinitions $end
#3200418681
bZ a32
b0 a49
b0 a52
b0 a8
bZ a29
b0 a4
b0 a6
bZ a7
b0 a36
bZ a14
bZ a47
b0 a22
b0 a26
bZ a13
bZ a56
b0 a25
b0 a24
b0 a46
b0 a20
bZ a31
b0 a42
bZ a5
bZ a34
b0 a55
bZ a50
bZ a9
bZ a35
bZ a44
b0 a45
b0 a11
bZ a23
b0 a51
b0 a18
b0 a19
bZ a58
bZ a1
bZ a41
b0 a16
bZ a15
bZ a37
b0 a2
bZ a12
b0 a33
b0 a57
b0 a17
b0 a54
bZ a38
b0 a30
b0 a21
bZ a53
bZ a28
bZ a27
bZ a39
bZ a48
bZ a43
bZ a40
bZ a3
b0 a10
#3200433305
b- a1
#3200433395
bZ a2
#3200433535
b- a3
#3200433555
bZ a4
#3200433585
b- a5
#3200433686
bZ a6
#3200434046
b- a7
#3200434046
bZ a8
#3200434056
b- a9
#3200434296
bX a7
#3200435097
bZ a10
#3200435708
bZ a11
#3200435988
b- a12
#3200436378
b- a13
#3200437369
b- a14
#3200437369
b- a7
#3200437689
b- a15
#3200439972
bX a14
#3200440652
bZ a12
#3200443475
b- a14
#3200443525
bX a7
#3200443966
bZ a16
#3200445647
bZ a17
#3200445958
bZ a18
#3200446438
bZ a19
#3200447099
bZ a20
#3200447899
bZ a21
#3200448360
bZ a22
#3200448920
b- a23
#3200449241
bZ a24
#3200449881
bZ a25
#3200450102
bZ a26
#3200450422
b- a27
#3200450512
b- a28
#3200450882
b- a29
#3200450882
bZ a30
#3200452003
b- a31
#3200452064
b- a32
#3200452074
bZ a33
#3200452534
bZ a32
#3200452534
bZ a27
#3200452634
bZ a31
#3200452914
bZ a23
#3200452964
b- a34
#3200453115
b- a35
#3200453125
bZ a36
#3200453265
b- a37
#3200453285
b- a38
#3200453675
b- a39
#3200454005
b- a40
#3200454015
b- a7
#3200454176
bX a40
#3200454296
bZ a39
#3200454326
b- a41
#3200454376
bZ a42
#3200454866
bZ a37
#3200454876
b- a40
#3200454886
bX a7
#3200454906
bZ a40
#3200454946
bZ a38
#3200455026
b- a12
#3200455056
bZ a34
#3200455597
bZ a12
#3200455607
b- a43
#3200455777
b- a44
#3200455807
bZ a45
#3200456147
bZ a46
#3200456718
b- a47
#3200457008
b- a48
#3200457048
b- a12
#3200457809
bZ a12
#3200457869
bZ a49
#3200457869
b- a50
#3200458079
b- a23
#3200459210
bZ a48
#3200459241
bZ a51
#3200459261
b- a12
#3200459361
bZ a12
#3200460071
bZ a43
#3200460091
bZ a28
#3200460101
bZ a23
#3200460171
bZ a35
#3200460191
bZ a29
#3200460211
b0 a24
#3200460472
bZ a41
#3200460492
b0 a25
#3200596845
bZ a52
#3200596875
b- a53
#3200596995
bZ a53
#3200597005
b0 a26
#3200597776
bZ a54
#3200598096
bZ a55
#3200598967
b- a56
#3200598977
b- a7
#3200598977
b0 a30
#3200598977
b0 a33
#3200599507
bZ a57
#3200599577
bX a56
#3200602771
b- a58
#3200602771
b- a56
#3200602801
bX a58
