examples/bugreport_deadlock_out/raw/sample_graph_binder_sample_alt.vcd
$timescale 1ms $end
$scope am_logs $end
$var wire 8 n19 com_miui_supermarket $end
$var wire 8 n20 com_android_voicedialer $end
$var wire 8 n17 com_google_process_gapps $end
$var wire 8 n9 android_process_media $end
$var wire 8 n12 com_miui_backup $end
$var wire 8 n22 com_svox_pico $end
$var wire 8 n13 com_miui_antispam $end
$var wire 8 n1 com_android_launcher $end
$var wire 8 n6 com_android_updater $end
$var wire 8 n8 com_android_settings $end
$var wire 8 n7 com_miui_notes $end
$var wire 8 n2 com_android_inputmethod_latin $end
$var wire 8 n10 com_android_deskclock $end
$var wire 8 n0 com_android_phone $end
$var wire 8 n16 com_google_android_partnersetup $end
$var wire 8 n21 _pre_initialized_ $end
$var wire 8 n18 com_android_mms $end
$var wire 8 n5 com_android_vending $end
$var wire 8 n4 com_android_systemui $end
$var wire 8 n14 com_android_bluetooth $end
$var wire 8 n11 com_android_providers_calendar $end
$var wire 8 n3 android_process_acore $end
$var wire 8 n15 com_google_android_gm $end
$upscope $end
$enddefinitions $end
#3200418681
bZ n0
bZ n1
bZ n2
bZ n3
bZ n4
bZ n5
bZ n6
bZ n7
bZ n8
bZ n9
bZ n10
bZ n11
bZ n12
bZ n13
bZ n14
bZ n15
bZ n16
bZ n17
bZ n18
bZ n19
bZ n20
bZ n21
bZ n22
#3200435309
b00000001 n0
#3200435487
bZ n0
#3200435597
b00000001 n1
#3200435668
bZ n1
#3200435896
b00000001 n2
#3200436218
bZ n2
#3200436517
b00000001 n3
#3200436779
bZ n3
#3200436859
b00000001 n0
#3200437012
b00000001 n4
#3200437379
bZ n4
#3200437399
bZ n0
#3200437500
b00000001 n0
#3200437516
b00000001 n3
#3200437830
bZ n0
#3200437840
bZ n3
#3200438540
b00000001 n4
#3200438560
bZ n4
#3200438984
b00000001 n4
#3200439001
bZ n4
#3200439026
b00000001 n4
#3200439031
bZ n4
#3200439966
b00000001 n1
#3200440182
bZ n1
#3200446263
b00000001 n5
#3200446308
bZ n5
#3200447563
b00000001 n5
#3200447620
b00000001 n6
#3200447740
b00000001 n7
#3200447745
b00000010 n5
#3200447749
b00000001 n5
bZ n6
#3200447752
b00000001 n6
#3200447801
b00000001 n9
#3200447839
b00000001 n8
#3200447859
bZ n7
#3200447891
b00000001 n7
#3200448086
b00000010 n6
#3200448090
b00000001 n6
#3200448160
bZ n5
#3200448230
bZ n6
#3200448370
bZ n8
#3200448410
bZ n9
#3200448417
b00000001 n10
#3200448660
bZ n10
#3200448670
bZ n7
#3200448731
b00000001 n7
#3200448741
b00000001 n8
#3200448770
b00000001 n1
#3200448790
bZ n1
b00000001 n10
#3200448940
bZ n8
#3200448946
b00000001 n8
#3200448981
bZ n10
#3200448982
b00000001 n10
#3200449011
bZ n7
#3200449021
bZ n8
#3200449114
b00000001 n1
#3200449124
b00000001 n11
#3200449125
b00000001 n8
#3200449231
bZ n1
#3200449351
bZ n10
#3200449511
bZ n11
bZ n8
#3200449529
b00000001 n10
#3200449645
b00000010 n10
#3200449651
b00000001 n10
#3200449811
bZ n10
#3200450070
b00000001 n10
#3200450190
b00000001 n12
#3200450322
bZ n12
#3200450328
b00000001 n13
#3200450434
b00000001 n12
#3200450462
bZ n13
#3200450502
bZ n10
#3200450512
bZ n12
#3200450549
b00000001 n12
#3200450652
bZ n12
#3200450669
b00000001 n12
#3200450754
b00000001 n13
#3200451022
bZ n13
#3200451033
bZ n12
#3200451076
b00000001 n13
#3200451134
b00000001 n9
#3200451182
b00000001 n10
#3200451235
b00000001 n14
#3200451429
b00000001 n1
#3200451583
bZ n9
#3200451585
b00000001 n12
#3200451603
bZ n1
#3200451643
bZ n10
bZ n13
#3200451703
bZ n14
#3200451932
b00000001 n10
#3200452029
b00000001 n13
#3200452124
bZ n10
#3200452144
bZ n12
#3200452276
b00000001 n14
#3200452294
bZ n13
#3200452344
bZ n14
#3200452468
b00000001 n13
#3200452594
bZ n13
#3200453456
b00000001 n15
#3200453503
b00000001 n16
#3200453525
bZ n15
#3200453596
b00000001 n15
#3200453615
bZ n16
#3200453635
bZ n15
#3200453722
b00000001 n17
#3200453837
b00000001 n16
#3200454146
bZ n17
#3200454157
b00000001 n1
#3200454186
bZ n16
#3200454826
bZ n1
#3200455175
b00000001 n17
#3200455197
bZ n17
#3200455344
b00000001 n18
#3200455497
bZ n18
#3200455643
b00000001 n7
#3200456193
b00000001 n19
#3200456918
bZ n19
#3200457219
bZ n7
#3200457838
b00000001 n6
#3200457889
b00000001 n5
#3200458055
b00000001 n20
#3200458260
bZ n6
#3200458300
bZ n5
#3200458342
b00000001 n5
#3200458440
bZ n20
#3200459140
bZ n5
#3200459600
b00000001 n5
#3200459641
bZ n5
#3200597672
b00000001 n17
#3200597766
bZ n17
#3200598137
b00000001 n22
#3200598231
b00000001 n21
#3200598516
bZ n21
#3200598566
bZ n22
#3200598777
b00000001 n1
#3200598896
b00000001 n22
#3200598977
bZ n1
#3200598997
bZ n22
#3200617875
bZ n0
bZ n1
bZ n2
bZ n3
bZ n4
bZ n5
bZ n6
bZ n7
bZ n8
bZ n9
bZ n10
bZ n11
bZ n12
bZ n13
bZ n14
bZ n15
bZ n16
bZ n17
bZ n18
bZ n19
bZ n20
bZ n21
bZ n22
