examples/bugreport_hybriddeadlock_out/raw/sample_graph_dvm_lock_sample.vcd
$timescale 1ms $end
$scope am_logs $end
$var wire 8 n0 system_server $end
$upscope $end
$enddefinitions $end
#3211756896
bZ n0
#3211765355
b00000001 n0
b00000010 n0
#3211771280
b00000011 n0
#3211771522
b00000100 n0
b00000101 n0
#3211772261
b00000100 n0
#3211772870
b00000101 n0
b00000110 n0
b00000111 n0
#3211773953
b00000110 n0
b00000101 n0
#3211774964
b00000100 n0
b00000011 n0
b00000010 n0
#3211774974
b00000001 n0
bZ n0
#3211785665
b00000001 n0
#3211786345
bZ n0
#3211787667
b00000001 n0
b00000010 n0
#3211790098
b00000001 n0
bZ n0
#3211844209
b00000001 n0
#3211848756
bZ n0
#3211859516
bZ n0
