examples/bugreport_hybriddeadlock_out/raw/sample_graph_binder_sample.vcd
$timescale 1ms $end
$scope am_logs $end
$var wire 8 n2  $end
$var wire 8 n8 com_android_internal_appwidget_IAppWidgetService $end
$var wire 8 n3 android_os_IPowerManager $end
$var wire 8 n9 IMountService $end
$var wire 8 n6 android_view_IWindowSession $end
$var wire 8 n4 android_content_IContentProvider $end
$var wire 8 n1 android_content_pm_IPackageManager $end
$var wire 8 n5 android_view_IWindowManager $end
$var wire 8 n10 android_bluetooth_IBluetoothHeadset $end
$var wire 8 n0 android_app_IActivityManager $end
$var wire 8 n11 android_content_IContentService $end
$var wire 8 n7 android_content_IBulkCursor $end
$upscope $end
$enddefinitions $end
#3211756896
bZ n0
bZ n1
bZ n2
bZ n3
bZ n4
bZ n5
bZ n6
bZ n7
bZ n8
bZ n9
bZ n10
bZ n11
#3211770662
b00000001 n0
#3211770679
bZ n0
#3211770727
b00000001 n0
#3211770760
bZ n0
#3211770962
b00000001 n1
#3211771130
bZ n1
#3211771566
b00000001 n2
#3211771660
bZ n2
#3211772082
b00000001 n1
#3211772091
bZ n1
#3211772614
b00000001 n0
#3211772648
b00000001 n1
#3211772655
b00000001 n3
#3211772822
bZ n1
#3211773022
bZ n3
#3211773032
bZ n0
#3211773079
b00000001 n4
#3211773092
bZ n4
#3211773140
b00000001 n5
#3211773152
bZ n5
#3211773505
b00000001 n0
#3211773523
b00000010 n0
#3211773953
b00000001 n0
#3211773983
bZ n0
#3211774501
b00000001 n0
#3211774513
bZ n0
#3211774584
b00000001 n0
#3211774650
b00000010 n0
#3211774974
b00000001 n0
bZ n0
#3211775666
b00000001 n0
#3211775835
bZ n0
#3211775845
b00000001 n0
#3211776365
bZ n0
#3211776715
b00000001 n6
#3211776845
bZ n6
#3211781834
b00000001 n0
#3211781860
bZ n0
#3211782683
b00000001 n7
#3211782691
bZ n7
#3211782810
b00000001 n8
#3211783062
bZ n8
#3211783220
b00000001 n4
#3211783232
bZ n4
#3211783304
b00000001 n0
#3211783312
bZ n0
#3211783515
b00000001 n0
#3211783712
bZ n0
#3211783765
b00000001 n1
#3211783852
bZ n1
#3211784105
b00000001 n0
#3211784463
bZ n0
#3211784654
b00000001 n0
#3211784663
bZ n0
#3211784842
b00000001 n1
#3211784983
bZ n1
#3211785397
b00000001 n0
#3211785414
bZ n0
#3211785439
b00000001 n0
#3211785514
bZ n0
#3211785578
b00000001 n1
#3211785584
bZ n1
#3211785691
b00000001 n0
#3211785934
bZ n0
#3211786338
b00000001 n0
#3211786345
bZ n0
#3211786732
b00000001 n9
#3211786738
b00000001 n1
#3211786769
b00000001 n0
#3211786785
b00000001 n10
#3211786905
bZ n1
#3211787256
bZ n9
#3211787268
b00000010 n0
#3211787405
b00000011 n0
#3211787416
b00000010 n0
#3211787441
b00000011 n0
#3211787526
b00000010 n0
#3211787606
b00000001 n0
#3211787609
b00000010 n0
#3211787616
bZ n10
#3211787706
b00000001 n0
#3211787806
bZ n0
#3211787881
b00000001 n0
#3211787936
bZ n0
#3211787969
b00000001 n2
#3211787986
bZ n2
#3211788121
b00000001 n0
#3211788207
bZ n0
#3211788231
b00000001 n0
#3211788237
bZ n0
#3211788252
b00000001 n0
#3211788317
bZ n0
#3211788500
b00000001 n0
#3211788507
bZ n0
#3211788752
b00000001 n11
#3211788987
bZ n11
#3211789228
b00000001 n0
#3211789238
bZ n0
#3211789537
b00000001 n4
#3211789548
bZ n4
#3211789844
b00000001 n0
#3211789869
b00000010 n0
#3211790108
b00000001 n0
#3211790138
bZ n0
#3211790858
b00000001 n1
#3211790889
bZ n1
#3211791932
b00000001 n0
#3211791940
bZ n0
#3211792241
b00000001 n0
#3211792251
bZ n0
#3211792721
b00000001 n0
#3211792731
bZ n0
#3211793034
b00000001 n0
#3211793532
bZ n0
#3211793535
b00000001 n0
#3211793542
bZ n0
#3211848587
b00000001 n1
#3211848595
bZ n1
#3211848855
b00000001 n0
#3211848926
bZ n0
#3211849692
b00000001 n1
#3211849830
b00000001 n0
#3211849917
bZ n1
#3211849937
bZ n0
#3211850831
b00000001 n6
#3211850858
bZ n6
#3211854933
b00000001 n0
#3211854942
bZ n0
#3211859516
bZ n0
bZ n1
bZ n2
bZ n3
bZ n4
bZ n5
bZ n6
bZ n7
bZ n8
bZ n9
bZ n10
bZ n11
