examples/bugreport_aidldeadlock_out/raw/sample_graph_binder_sample_alt.vcd
$timescale 1ms $end
$scope am_logs $end
$var wire 8 n17 com_sonymobile_chkbugreport_testapp $end
$var wire 8 n4 com_google_process_gapps $end
$var wire 8 n12 com_miui_backup $end
$var wire 8 n16 com_google_android_talk $end
$var wire 8 n2 com_android_launcher $end
$var wire 8 n8 com_android_updater $end
$var wire 8 n11 com_miui_antispam $end
$var wire 8 n10 com_miui_notes $end
$var wire 8 n13 com_android_email $end
$var wire 8 n1 com_android_inputmethod_latin $end
$var wire 8 n9 com_android_deskclock $end
$var wire 8 n3 com_android_phone $end
$var wire 8 n15 com_google_android_partnersetup $end
$var wire 8 n0 _pre_initialized_ $end
$var wire 8 n7 com_android_vending $end
$var wire 8 n18 app_process $end
$var wire 8 n5 com_android_systemui $end
$var wire 8 n14 com_android_bluetooth $end
$var wire 8 n19 com_sonymobile_chkbugreport_testapp_ext $end
$var wire 8 n6 android_process_acore $end
$upscope $end
$enddefinitions $end
#3266547621
bZ n0
bZ n1
bZ n2
bZ n3
bZ n4
bZ n5
bZ n6
bZ n7
bZ n8
bZ n9
bZ n10
bZ n11
bZ n12
bZ n13
bZ n14
bZ n15
bZ n16
bZ n17
bZ n18
bZ n19
#3266561240
b00000001 n0
#3266561394
bZ n0
#3266562559
b00000001 n1
#3266562614
b00000001 n2
#3266562909
b00000001 n0
#3266563016
bZ n1
#3266563026
bZ n2
#3266563036
bZ n0
#3266563645
b00000001 n3
#3266563817
bZ n3
#3266564241
b00000001 n3
#3266564370
b00000001 n4
#3266564430
b00000001 n5
#3266564658
bZ n4
#3266564668
bZ n5
#3266564688
bZ n3
#3266564829
b00000001 n6
#3266565046
b00000001 n3
#3266565058
bZ n6
bZ n3
#3266565200
b00000001 n3
#3266565348
bZ n3
#3266566489
b00000001 n2
#3266566493
b00000001 n4
#3266566679
bZ n2
#3266566689
bZ n4
#3266566903
b00000001 n5
#3266566940
bZ n5
#3266567246
b00000001 n4
#3266567550
bZ n4
#3266573306
b00000001 n2
#3266573326
bZ n2
#3266573518
b00000001 n7
#3266573666
bZ n7
#3266574035
b00000001 n7
#3266574104
b00000001 n8
#3266574127
bZ n7
#3266574197
bZ n8
#3266575258
b00000001 n9
#3266575325
b00000001 n10
#3266575448
bZ n9
#3266575562
b00000010 n10
#3266575568
b00000001 n10
#3266575638
bZ n10
#3266575966
b00000001 n11
#3266576089
bZ n11
#3266576455
b00000001 n12
#3266576725
b00000001 n11
#3266576888
b00000010 n11
#3266576889
b00000001 n11
#3266577080
bZ n11
#3266577090
bZ n12
#3266577317
b00000001 n9
#3266577511
b00000001 n12
#3266577660
bZ n9
#3266577661
b00000001 n2
#3266577740
bZ n12
#3266577810
bZ n2
#3266578191
b00000001 n14
#3266578208
b00000001 n9
#3266578230
b00000001 n12
#3266578441
bZ n9
#3266578449
b00000001 n13
#3266578531
bZ n13
bZ n14
b00000001 n14
#3266578591
bZ n12
#3266578606
b00000001 n12
#3266578621
bZ n14
#3266578674
b00000001 n14
#3266578821
bZ n12
#3266579012
bZ n14
#3266579138
b00000001 n13
#3266579332
bZ n13
#3266579777
b00000001 n2
#3266579812
bZ n2
#3266579918
b00000001 n2
#3266580073
bZ n2
#3266580088
b00000001 n15
#3266580173
bZ n15
#3266584509
b00000001 n16
#3266584542
b00000001 n10
#3266584617
bZ n16
#3266584727
bZ n10
#3266584843
b00000001 n7
#3266584897
bZ n7
#3266736713
b00000001 n17
#3266738717
b00000010 n17
#3266740719
b00000001 n17
bZ n17
#3266740720
b00000001 n17
#3266744723
bZ n17
#3266880917
b00000001 n18
#3266881026
bZ n18
#3266881254
b00000001 n2
#3266881286
bZ n2
#3266905768
b00000001 n17
#3266907827
b00000010 n17
#3266909844
b00000001 n17
bZ n17
#3266966039
b00000001 n17
#3266970043
bZ n17
#3267112352
b00000001 n17
#3267112362
b00000001 n19
#3267114354
bZ n17
b00000001 n17
#3267118358
bZ n17
#3267122512
bZ n19
#3267187465
b00000001 n17
#3267191469
bZ n17
#3267191579
b00000001 n19
#3267195583
bZ n19
#3267449451
bZ n0
bZ n1
bZ n2
bZ n3
bZ n4
bZ n5
bZ n6
bZ n7
bZ n8
bZ n9
bZ n10
bZ n11
bZ n12
bZ n13
bZ n14
bZ n15
bZ n16
bZ n17
bZ n18
bZ n19
