examples/bugreport_aidldeadlock_out/raw/sample_graph_dvm_lock_sample.vcd
$timescale 1ms $end
$scope am_logs $end
$var wire 8 n0 system_server $end
$upscope $end
$enddefinitions $end
#3266547621
bZ n0
#3266561785
b00000001 n0
#3266562297
b00000010 n0
#3266562766
b00000001 n0
#3266564728
bZ n0
#3266575235
b00000001 n0
#3266577130
b00000010 n0
#3266577810
b00000001 n0
#3266582054
bZ n0
#3266732273
b00000001 n0
#3266732912
bZ n0
#3267101522
b00000001 n0
#3267103794
b00000010 n0
#3267105125
b00000001 n0
#3267106186
bZ n0
#3267109860
b00000001 n0
#3267112152
bZ n0
#3267168822
b00000001 n0
#3267177716
b00000010 n0
#3267180038
b00000001 n0
#3267182380
bZ n0
#3267409947
b00000001 n0
#3267410087
b00000010 n0
#3267415838
b00000011 n0
#3267420502
b00000010 n0
#3267420733
b00000001 n0
#3267420873
bZ n0
#3267449451
bZ n0
