examples/bugreport_aidldeadlock_out/raw/sample_graph_binder_sample.vcd
$timescale 1ms $end
$scope am_logs $end
$var wire 8 n3  $end
$var wire 8 n8 com_sonymobile_chkbugreport_testapp_IDeadlock $end
$var wire 8 n6 android_content_pm_IPackageManager $end
$var wire 8 n5 android_content_IContentProvider $end
$var wire 8 n4 android_view_IWindowSession $end
$var wire 8 n0 android_app_IActivityManager $end
$var wire 8 n1 android_content_IContentService $end
$var wire 8 n2 com_android_internal_telephony_ITelephonyRegistry $end
$var wire 8 n7 android_content_IBulkCursor $end
$upscope $end
$enddefinitions $end
#3266547621
bZ n0
bZ n1
bZ n2
bZ n3
bZ n4
bZ n5
bZ n6
bZ n7
bZ n8
#3266561240
b00000001 n0
#3266561394
bZ n0
#3266562559
b00000001 n1
#3266562614
b00000010 n1
#3266562909
b00000001 n0
#3266563016
b00000001 n1
#3266563026
bZ n1
#3266563036
bZ n0
#3266563645
b00000001 n0
#3266563817
bZ n0
#3266564241
b00000001 n0
#3266564370
b00000010 n0
#3266564430
b00000011 n0
#3266564658
b00000010 n0
#3266564668
b00000001 n0
#3266564688
bZ n0
#3266564829
b00000001 n0
#3266565046
b00000001 n2
#3266565058
bZ n0
bZ n2
#3266565200
b00000001 n0
#3266565348
bZ n0
#3266566489
b00000001 n3
#3266566493
b00000010 n3
#3266566679
b00000001 n3
#3266566689
bZ n3
#3266566903
b00000001 n4
#3266566940
bZ n4
#3266567246
b00000001 n1
#3266567550
bZ n1
#3266573306
b00000001 n4
#3266573326
bZ n4
#3266573518
b00000001 n0
#3266573666
bZ n0
#3266574035
b00000001 n0
#3266574104
b00000010 n0
#3266574127
b00000001 n0
#3266574197
bZ n0
#3266575258
b00000001 n0
#3266575325
b00000010 n0
#3266575448
b00000001 n0
#3266575562
b00000010 n0
#3266575568
b00000001 n0
#3266575638
bZ n0
#3266575966
b00000001 n5
#3266576089
bZ n5
#3266576455
b00000001 n0
#3266576725
b00000010 n0
#3266576888
b00000011 n0
#3266576889
b00000010 n0
#3266577080
b00000001 n0
#3266577090
bZ n0
#3266577317
b00000001 n0
#3266577511
b00000010 n0
#3266577660
b00000001 n0
#3266577661
b00000001 n6
#3266577740
bZ n0
#3266577810
bZ n6
#3266578191
b00000001 n0
#3266578208
b00000010 n0
#3266578230
b00000011 n0
#3266578441
b00000010 n0
#3266578449
b00000001 n1
#3266578531
bZ n1
b00000001 n0
b00000010 n0
#3266578591
b00000001 n0
#3266578606
b00000010 n0
#3266578621
b00000001 n0
#3266578674
b00000010 n0
#3266578821
b00000001 n0
#3266579012
bZ n0
#3266579138
b00000001 n0
#3266579332
bZ n0
#3266579777
b00000001 n4
#3266579812
bZ n4
#3266579918
b00000001 n0
#3266580073
bZ n0
#3266580088
b00000001 n0
#3266580173
bZ n0
#3266584509
b00000001 n0
#3266584542
b00000010 n0
#3266584617
b00000001 n0
#3266584727
bZ n0
#3266584843
b00000001 n7
#3266584897
bZ n7
#3266736713
b00000001 n8
#3266738717
b00000010 n8
#3266740719
b00000001 n8
bZ n8
#3266740720
b00000001 n8
#3266744723
bZ n8
#3266880917
b00000001 n0
#3266881026
bZ n0
#3266881254
b00000001 n4
#3266881286
bZ n4
#3266905768
b00000001 n8
#3266907827
b00000010 n8
#3266909844
b00000001 n8
bZ n8
#3266966039
b00000001 n8
#3266970043
bZ n8
#3267112352
b00000001 n8
#3267112362
b00000010 n8
#3267114354
b00000001 n8
b00000010 n8
#3267118358
b00000001 n8
#3267122512
bZ n8
#3267187465
b00000001 n8
#3267191469
bZ n8
#3267191579
b00000001 n8
#3267195583
bZ n8
#3267449451
bZ n0
bZ n1
bZ n2
bZ n3
bZ n4
bZ n5
bZ n6
bZ n7
bZ n8
